{
  "extends": [
    "gitlab>vito-templates/renovate-bot",
    "customManagers:dockerfileVersions"
  ],
  "packageRules": [
    {
      "matchPackageNames": ["docker"],
      "automerge": true,
      "platformAutomerge": true,
      "matchUpdateTypes": ["patch", "digest"]
    }
  ]
}
